%YAML 1.1
%TAG !u! tag:unity3d.com,2011:
--- !u!1 &110720
GameObject:
  m_ObjectHideFlags: 0
  m_PrefabParentObject: {fileID: 0}
  m_PrefabInternal: {fileID: 100100000}
  serializedVersion: 4
  m_Component:
  - 4: {fileID: 443258}
  - 114: {fileID: 11408094}
  m_Layer: 0
  m_Name: SoundUI
  m_TagString: Untagged
  m_Icon: {fileID: 0}
  m_NavMeshLayer: 0
  m_StaticEditorFlags: 0
  m_IsActive: 1
--- !u!4 &443258
Transform:
  m_ObjectHideFlags: 1
  m_PrefabParentObject: {fileID: 0}
  m_PrefabInternal: {fileID: 100100000}
  m_GameObject: {fileID: 110720}
  m_LocalRotation: {x: 0, y: 0, z: 0, w: 1}
  m_LocalPosition: {x: 0, y: 0, z: 0}
  m_LocalScale: {x: 1, y: 1, z: 1}
  m_LocalEulerAnglesHint: {x: 0, y: 0, z: 0}
  m_Children: []
  m_Father: {fileID: 0}
  m_RootOrder: 0
--- !u!114 &11408094
MonoBehaviour:
  m_ObjectHideFlags: 1
  m_PrefabParentObject: {fileID: 0}
  m_PrefabInternal: {fileID: 100100000}
  m_GameObject: {fileID: 110720}
  m_Enabled: 1
  m_EditorHideFlags: 0
  m_Script: {fileID: 11500000, guid: a83fdf89e8da34943950d1dcc2ac426b, type: 3}
  m_Name: 
  m_EditorClassIdentifier: 
  customGUISkin: {fileID: 11400000, guid: 93f62e3c711e8df428271f9789815b00, type: 2}
  textureSoundOn: {fileID: 2800000, guid: b76da22a77d1b88469b750bb20ef6205, type: 3}
  textureSoundOff: {fileID: 2800000, guid: 8431534551b05a9458a70a38a98e3de8, type: 3}
  textureMusicOn: {fileID: 2800000, guid: 12d79c895c5f04b41866776407c87095, type: 3}
  textureMusicOff: {fileID: 2800000, guid: 40ac5ebbcf60487449a9cca69093c2f9, type: 3}
--- !u!1001 &100100000
Prefab:
  m_ObjectHideFlags: 1
  serializedVersion: 2
  m_Modification:
    m_TransformParent: {fileID: 0}
    m_Modifications:
    - target: {fileID: 0}
      propertyPath: customGUISkin
      value: 
      objectReference: {fileID: 11400000, guid: 93f62e3c711e8df428271f9789815b00,
        type: 2}
    - target: {fileID: 0}
      propertyPath: textureSoundOff
      value: 
      objectReference: {fileID: 2800000, guid: 8431534551b05a9458a70a38a98e3de8, type: 3}
    - target: {fileID: 0}
      propertyPath: textureSoundOn
      value: 
      objectReference: {fileID: 2800000, guid: b76da22a77d1b88469b750bb20ef6205, type: 3}
    - target: {fileID: 0}
      propertyPath: textureMusicOn
      value: 
      objectReference: {fileID: 2800000, guid: 12d79c895c5f04b41866776407c87095, type: 3}
    - target: {fileID: 0}
      propertyPath: textureMusicOff
      value: 
      objectReference: {fileID: 2800000, guid: 40ac5ebbcf60487449a9cca69093c2f9, type: 3}
    m_RemovedComponents: []
  m_ParentPrefab: {fileID: 0}
  m_RootGameObject: {fileID: 110720}
  m_IsPrefabParent: 1
