%YAML 1.1
%TAG !u! tag:unity3d.com,2011:
--- !u!1 &113250
GameObject:
  m_ObjectHideFlags: 0
  m_PrefabParentObject: {fileID: 0}
  m_PrefabInternal: {fileID: 100100000}
  serializedVersion: 4
  m_Component:
  - 4: {fileID: 459900}
  - 114: {fileID: 11406592}
  m_Layer: 0
  m_Name: LevelBuilder
  m_TagString: Untagged
  m_Icon: {fileID: 0}
  m_NavMeshLayer: 0
  m_StaticEditorFlags: 0
  m_IsActive: 1
--- !u!4 &459900
Transform:
  m_ObjectHideFlags: 1
  m_PrefabParentObject: {fileID: 0}
  m_PrefabInternal: {fileID: 100100000}
  m_GameObject: {fileID: 113250}
  m_LocalRotation: {x: 0, y: 0, z: 0, w: 1}
  m_LocalPosition: {x: 0, y: 0, z: 0}
  m_LocalScale: {x: 1, y: 1, z: 1}
  m_LocalEulerAnglesHint: {x: 0, y: 0, z: 0}
  m_Children: []
  m_Father: {fileID: 0}
  m_RootOrder: 0
--- !u!114 &11406592
MonoBehaviour:
  m_ObjectHideFlags: 1
  m_PrefabParentObject: {fileID: 0}
  m_PrefabInternal: {fileID: 100100000}
  m_GameObject: {fileID: 113250}
  m_Enabled: 1
  m_EditorHideFlags: 0
  m_Script: {fileID: 11500000, guid: 8ed127268ba639749a63f58ca8607756, type: 3}
  m_Name: 
  m_EditorClassIdentifier: 
  wallPrefab: {fileID: 155600, guid: 674496f73f043e64eb8c2695f8d06033, type: 2}
  jsonText: {fileID: 4900000, guid: 9d0610b147e947747abaca3ccb8cf050, type: 3}
  obstacle1x1: {fileID: 180888, guid: d55b875dc2423ea4ba8b13985626c179, type: 2}
  obstacle2x2: {fileID: 182556, guid: 1e545126f96b6fb4c93893a73518f9f6, type: 2}
  obstacle2x1: {fileID: 145720, guid: 09f3437064306dd43b8d82fce54928f1, type: 2}
  obstacle1x2: {fileID: 153098, guid: 700c1de65f398ce4fa088c365ca47d6b, type: 2}
  obstacle3x1: {fileID: 145720, guid: 56e58ec3ec67f1046b3446c17a234106, type: 2}
  obstacle1x3: {fileID: 153098, guid: 438754ee7bb5960419a8372a91aa3765, type: 2}
--- !u!1001 &100100000
Prefab:
  m_ObjectHideFlags: 1
  serializedVersion: 2
  m_Modification:
    m_TransformParent: {fileID: 0}
    m_Modifications:
    - target: {fileID: 0}
      propertyPath: m_LocalPosition.x
      value: 0
      objectReference: {fileID: 0}
    - target: {fileID: 0}
      propertyPath: m_LocalPosition.y
      value: 0
      objectReference: {fileID: 0}
    - target: {fileID: 0}
      propertyPath: wallPrefab
      value: 
      objectReference: {fileID: 155600, guid: 674496f73f043e64eb8c2695f8d06033, type: 2}
    - target: {fileID: 0}
      propertyPath: jsonText
      value: 
      objectReference: {fileID: 4900000, guid: 9d0610b147e947747abaca3ccb8cf050, type: 3}
    - target: {fileID: 0}
      propertyPath: obstacle1x1
      value: 
      objectReference: {fileID: 180888, guid: d55b875dc2423ea4ba8b13985626c179, type: 2}
    - target: {fileID: 0}
      propertyPath: obstacle2x2
      value: 
      objectReference: {fileID: 182556, guid: 1e545126f96b6fb4c93893a73518f9f6, type: 2}
    - target: {fileID: 0}
      propertyPath: obstacle1x2
      value: 
      objectReference: {fileID: 153098, guid: 700c1de65f398ce4fa088c365ca47d6b, type: 2}
    - target: {fileID: 0}
      propertyPath: obstacle2x1
      value: 
      objectReference: {fileID: 145720, guid: 09f3437064306dd43b8d82fce54928f1, type: 2}
    - target: {fileID: 0}
      propertyPath: obstacle1x3
      value: 
      objectReference: {fileID: 153098, guid: 438754ee7bb5960419a8372a91aa3765, type: 2}
    - target: {fileID: 0}
      propertyPath: obstacle3x1
      value: 
      objectReference: {fileID: 145720, guid: 56e58ec3ec67f1046b3446c17a234106, type: 2}
    m_RemovedComponents: []
  m_ParentPrefab: {fileID: 0}
  m_RootGameObject: {fileID: 113250}
  m_IsPrefabParent: 1
